module github.com/madflow/awesomo

go 1.23

require (
	github.com/go-rod/rod v0.116.2
	github.com/spf13/cobra v1.8.0
	github.com/spf13/viper v1.18.2
)

require (
	github.com/fsnotify/fsnotify v1.7.0 // indirect
	github.com/hashicorp/hcl v1.0.0 // indirect
	github.com/inconshreveable/mousetrap v1.1.0 // indirect
	github.com/magiconair/properties v1.8.7 // indirect
	github.com/mitchellh/mapstructure v1.5.0 // indirect
	github.com/pelletier/go-toml/v2 v2.2.2 // indirect
	github.com/sagikazarmark/locafero v0.4.0 // indirect
	github.com/sagikazarmark/slog-shim v0.1.0 // indirect
	github.com/sourcegraph/conc v0.3.0 // indirect
	github.com/spf13/afero v1.11.0 // indirect
	github.com/spf13/cast v1.6.0 // indirect
	github.com/spf13/pflag v1.0.5 // indirect
	github.com/subosito/gotenv v1.6.0 // indirect
	github.com/ysmood/fetchup v0.2.3 // indirect
	github.com/ysmood/goob v0.4.0 // indirect
	github.com/ysmood/got v0.40.0 // indirect
	github.com/ysmood/gson v0.7.3 // indirect
	github.com/ysmood/leakless v0.9.0 // indirect
	go.uber.org/multierr v1.11.0 // indirect
	golang.org/x/exp v0.0.0-20240506185415-9bf2ced13842 // indirect
	golang.org/x/sys v0.20.0 // indirect
	golang.org/x/text v0.15.0 // indirect
	gopkg.in/ini.v1 v1.67.0 // indirect
	gopkg.in/yaml.v3 v3.0.1 // indirect
)
